<?xml version="1.0"?>
<!-- Converted with SVG Converter - Version 0.9.5 (Compiled Mon May 30 09:08:51 2011) - Copyright (C) 2011 Nokia -->
<svg xmlns="http://www.w3.org/2000/svg" width="30px" x="0px" version="1.1" y="0px" height="30px" viewBox="0 0 30 30" xmlns:xlink="http://www.w3.org/1999/xlink" baseProfile="tiny" xml:space="preserve">
 <g id="DO_NOT_EDIT_-_BOUNDING_BOX">
  <rect width="30" fill="none" height="30" id="BOUNDING_BOX"/>
 </g>
 <g id="PLACE_YOUR_GRAPHIC_HERE">
  <g>
   <path stroke-opacity="0.3" fill-opacity="0.3" d="M28,6H2l13,10.001L28,6z M2,7.893v15.108c0,0.55,0.45,1,1,1h24c0.551,0,1-0.45,1-1V7.893L15,17.894L2,7.893&#xd;&#xa;&#x9;&#x9;&#x9;z"/>
   <rect width="30" fill="none" height="30"/>
   <rect width="30" fill="none" height="30"/>
   <path stroke-opacity="0.15" fill-opacity="0.15" d="M3,26.001c-1.103,0-2-0.897-2-2V8.893c0-0.381-0.084-1.809,0.053-2.215C1.191,6.272,1.572,6,2,6h26&#xd;&#xa;&#x9;&#x9;&#x9;c0.428,0,0.809,0.272,0.946,0.678C29.085,7.083,29,8.512,29,8.893v15.108c0,1.103-0.897,2-2,2H3z"/>
   <path stroke-opacity="0.15" fill-opacity="0.15" d="M28,7H2l13,10.001L28,7z M2,8.893v15.108c0,0.55,0.45,1,1,1h24c0.551,0,1-0.45,1-1V8.893L15,18.894&#xd;&#xa;&#x9;&#x9;&#x9;L2,8.893z"/>
   <path fill="#FFFFFF" d="M28,7H2l13,10.001L28,7z M2,8.893v15.108c0,0.55,0.45,1,1,1h24c0.551,0,1-0.45,1-1V8.893L15,18.894&#xd;&#xa;&#x9;&#x9;&#x9;L2,8.893z"/>
  </g>
 </g>
</svg>
